{
    "26213": "Q115777025",
    "26215": "Q11722101",
    "29732": "Q104175547",
    "27673": "Q109715078",
    "27674": "Q115270547",
    "27668": "Q109639242",
    "25179": "Q1518034",
    "29593": "Q47504016",
    "21301": "Q19279594",
    "20313": "Q40719190",
    "29597": "Q1595481",
    "27461": "Q315688",
    "25977": "Q101843230",
    "25974": "Q1455043",
    "25982": "Q109638810",
    "11766": "Q1547632",
    "15219": "Q1452652",
    "30215": "Q108566764",
    "16832": "Q106832145",
    "15466": "Q106832812",
    "16117": "Q106832769",
    "16158": "Q1414486",
    "17456": "Q106857273",
    "15620": "Q106857351",
    "43771": "Q2345735",
    "16141": "Q2358953",
    "16123": "Q444036",
    "39121": "Q880257",
    "43773": "Q2345735",
    "15590": "Q105333789",
    "15588": "Q105164959",
    "15242": "Q105101676",
    "15606": "Q105170728",
    "16430": "Q105103286",
    "15759": "Q69895611",
    "13404": "Q28436264",
    "13384": "Q1454260",
    "16762": "Q1602061",
    "30476": "Q114438567",
    "17836": "Q114438567",
    "17833": "Q114438567",
    "29470": "Q108566793",
    "29469": "Q64577227",
    "30512": "Q2041140",
    "17706": "Q18286210",
    "30518": "Q108566815",
    "11763": "Q115354407",
    "17801": "Q108566815",
    "17708": "Q71816980",
    "29509": "Q26821519",
    "22547": "Q66771579",
    "21266": "Q18752621",
    "23311": "Q18752621",
    "23015": "Q83365207",
    "22935": "Q759617",
    "30821": "Q759617",
    "30899": "Q1002408",
    "30903": "Q1679407",
    "19950": "Q18121807",
    "22314": "Q111746891",
    "23308": "Q2465909",
    "22311": "Q66023291",
    "30909": "Q1596378",
    "20216": "Q28859942",
    "30913": "Q108566807",
    "29836": "Q110627878",
    "38988": "Q2240259",
    "25414": "Q107659584",
    "27926": "Q110226251",
    "25170": "Q107428527",
    "29287": "Q2250964",
    "27911": "Q480735",
    "27502": "Q66424652",
    "29820": "Q19964010",
    "27751": "Q1583589",
    "27733": "Q111629012",
    "27732": "Q1742725",
    "29282": "Q108566761",
    "27245": "Q18173158",
    "25151": "Q437745",
    "29818": "Q1876688",
    "31113": "Q108566865",
    "27968": "Q107453872",
    "31087": "Q436007",
    "23320": "Q436007",
    "27089": "Q436007",
    "24277": "Q106605030",
    "27081": "Q820252",
    "27100": "Q106606123",
    "12874": "Q108566812",
    "39042": "Q17353914",
    "30029": "Q28037564",
    "29344": "Q1457488",
    "29336": "Q19963965",
    "14396": "Q1793300",
    "27684": "Q18619176",
    "27687": "Q2321881",
    "26223": "Q106640704",
    "27677": "Q109347064",
    "16977": "Q811839",
    "18199": "Q480737",
    "16703": "Q111964585",
    "18110": "Q800871",
    "29381": "Q27478612",
    "29443": "Q111842998",
    "30412": "Q881579",
    "29502": "Q41576002",
    "22289": "Q56035760",
    "28131": "Q82687136",
    "29225": "Q28498634",
    "29357": "Q828746",
    "30027": "Q1355744",
    "30991": "Q58038799",
    "26840": "Q108105466",
    "26393": "Q106611695",
    "27173": "Q109600947",
    "27171": "Q2043377",
    "29713": "Q110598500",
    "30932": "Q1807150",
    "29659": "Q108566762",
    "25430": "Q105510161",
    "19696": "Q66820765",
    "30992": "Q62665920",
    "24542": "Q62665920",
    "29276": "Q66424316",
    "24471": "Q800891",
    "24543": "Q1456776",
    "39054": "Q15820609",
    "22422": "Q2035246",
    "18602": "Q79030177",
    "18603": "Q2317633",
    "18394": "Q86218157",
    "29519": "Q102271786",
    "18383": "Q63098932",
    "30503": "Q1572803",
    "29468": "Q29365398",
    "17275": "Q106224098",
    "18508": "Q275746",
    "18905": "Q1665442",
    "18391": "Q67080552",
    "17290": "Q96621117",
    "19261": "Q66592721",
    "31208": "Q109719034",
    "28211": "Q108566753",
    "29855": "Q108936733",
    "28210": "Q108566817",
    "26790": "Q109829705",
    "30744": "Q28946452",
    "20728": "Q28946452",
    "29581": "Q979725",
    "29254": "Q1558106",
    "30727": "Q18010766",
    "30730": "Q1237432",
    "30732": "Q2465965",
    "24405": "Q55743883",
    "29258": "Q79122670",
    "20812": "Q15827687",
    "20876": "Q28859949",
    "24602": "Q111203537",
    "24598": "Q110887180",
    "29353": "Q106558963",
    "28483": "Q111204014",
    "29625": "Q1558060",
    "30968": "Q1422348",
    "29274": "Q101243139",
    "29626": "Q66220777",
    "23242": "Q21036824",
    "31245": "Q19286112",
    "28595": "Q19286112",
    "28596": "Q19286112",
    "30761": "Q1607806",
    "20895": "Q1607806",
    "17893": "Q108566782",
    "29475": "Q108368052",
    "17979": "Q105714307",
    "29911": "Q661881",
    "12190": "Q26951150",
    "14972": "Q56878399",
    "14139": "Q937608",
    "14127": "Q2009752",
    "14221": "Q28337710",
    "29221": "Q558551",
    "14223": "Q2408858",
    "29148": "Q456499",
    "29927": "Q3238460",
    "11979": "Q877566",
    "29912": "Q55272850",
    "29135": "Q2801439",
    "12491": "Q1375224",
    "14877": "Q76307576",
    "14863": "Q218701",
    "14864": "Q863909",
    "29126": "Q19309524",
    "29127": "Q90536188",
    "29130": "Q531157",
    "29133": "Q542783",
    "29138": "Q28381828",
    "29970": "Q113402114",
    "29139": "Q23786394",
    "29917": "Q1183156",
    "11833": "Q1183156",
    "11834": "Q1183156",
    "29140": "Q23786826",
    "12048": "Q108566836",
    "11851": "Q385731",
    "14750": "Q1991075",
    "29153": "Q436055",
    "11853": "Q19963924",
    "11855": "Q19285654",
    "29923": "Q425622",
    "11857": "Q18632417",
    "29292": "Q19277450",
    "11867": "Q1713426",
    "11873": "Q23780480",
    "14802": "Q96376449",
    "14861": "Q1572997",
    "29159": "Q2518220",
    "12837": "Q1868756",
    "29163": "Q1545737",
    "14997": "Q1821722",
    "29932": "Q115234731",
    "12140": "Q76307576",
    "29935": "Q25089221",
    "29938": "Q55330581",
    "12066": "Q6063200",
    "29937": "Q880649",
    "12067": "Q96375132",
    "12254": "Q880649",
    "11981": "Q2136598",
    "29940": "Q106605840",
    "12259": "Q875571",
    "14751": "Q1614236",
    "12405": "Q19288718",
    "14776": "Q106382358",
    "12070": "Q89417371",
    "12071": "Q104151027",
    "12406": "Q2455726",
    "11973": "Q1551656",
    "14771": "Q55300168",
    "29971": "Q43202951",
    "14173": "Q108566785",
    "13809": "Q1610621",
    "14175": "Q1573708",
    "13810": "Q1170288",
    "30165": "Q1170288",
    "13811": "Q437953",
    "14241": "Q109771339",
    "30155": "Q1549441",
    "13804": "Q59296780",
    "27506": "Q105886437",
    "26265": "Q1534146",
    "31192": "Q2319467",
    "27874": "Q18616186",
    "29900": "Q566812",
    "26261": "Q2132543",
    "28001": "Q1409779",
    "26954": "Q96376808",
    "28031": "Q96376919",
    "31171": "Q106605520",
    "28536": "Q106605636",
    "29286": "Q96376709",
    "28534": "Q11955143",
    "30671": "Q1656469",
    "19907": "Q1656469",
    "30595": "Q106605057",
    "19158": "Q15827701",
    "19759": "Q15827701",
    "30688": "Q1546956",
    "19583": "Q22940214",
    "19607": "Q15827701",
    "19669": "Q15827701",
    "19647": "Q15827701",
    "19626": "Q106605475",
    "30681": "Q106605475",
    "19978": "Q106605475",
    "18778": "Q98538735",
    "19168": "Q15827701",
    "19238": "Q15827701",
    "19588": "Q61628903",
    "19579": "Q19288395",
    "21878": "Q19288395",
    "29542": "Q110149802",
    "19634": "Q106605743",
    "19641": "Q1418566",
    "29541": "Q99485131",
    "19858": "Q15827701",
    "19772": "Q15827701",
    "19648": "Q15827701",
    "18793": "Q2168643",
    "19906": "Q1656469",
    "29553": "Q114876823",
    "28308": "Q882453",
    "28295": "Q47092155",
    "28287": "Q107352122",
    "29576": "Q108566825",
    "38954": "Q108566825",
    "29252": "Q113827709",
    "20245": "Q2321011",
    "30707": "Q114808930",
    "20332": "Q114808930",
    "20329": "Q114808930",
    "20247": "Q66475528",
    "30694": "Q106605114",
    "19812": "Q18624903",
    "19788": "Q114808980",
    "29269": "Q106765638",
    "30892": "Q106766943",
    "22298": "Q106766943",
    "22283": "Q106766943",
    "30891": "Q1897895",
    "22300": "Q1897895",
    "22285": "Q108486639",
    "22299": "Q106766943",
    "22280": "Q1897895",
    "30785": "Q100313035",
    "21237": "Q100313035",
    "21238": "Q100313035",
    "23305": "Q29535488",
    "22281": "Q2651509",
    "22284": "Q1719628",
    "22288": "Q1719628",
    "21234": "Q617555",
    "30810": "Q617555",
    "21235": "Q617555",
    "13080": "Q105797772",
    "13096": "Q19835553",
    "30184": "Q19835553",
    "26374": "Q19835553",
    "13095": "Q19835553",
    "29334": "Q99769207",
    "29333": "Q104247467",
    "30178": "Q108566879",
    "14841": "Q108566879",
    "14842": "Q108566879",
    "14843": "Q108566879",
    "13073": "Q106606070",
    "14251": "Q108566879",
    "26912": "Q20754121",
    "26910": "Q20754121",
    "39156": "Q106013290",
    "29376": "Q108380256",
    "30331": "Q41804671",
    "44922": "Q530991",
    "44923": "Q530991",
    "44924": "Q530991",
    "44936": "Q530991",
    "44937": "Q530991",
    "31011": "Q19289149",
    "23341": "Q1236450",
    "23342": "Q1236450",
    "29778": "Q109673231",
    "31125": "Q1569262",
    "27626": "Q1569262",
    "27627": "Q1569262",
    "27629": "Q1569262",
    "29773": "Q1569262",
    "29779": "Q93221607",
    "27607": "Q109687028",
    "29780": "Q102280446",
    "27597": "Q109673843",
    "13018": "Q113827388",
    "14798": "Q317687",
    "14788": "Q317687",
    "30201": "Q2551487",
    "30982": "Q50212429",
    "30984": "Q2319799",
    "24172": "Q2319799",
    "29629": "Q96240424",
    "30987": "Q569748",
    "24411": "Q108566760",
    "29275": "Q28946766",
    "14816": "Q106692977",
    "45499": "Q111192002",
    "29807": "Q104163467",
    "31133": "Q108566776",
    "26244": "Q108566776",
    "26245": "Q2220592",
    "29808": "Q108566850",
    "45475": "Q110768291",
    "30697": "Q61310657",
    "20096": "Q61310657",
    "20107": "Q14552203",
    "29568": "Q80192323",
    "14419": "Q59296754",
    "20089": "Q999939",
    "17324": "Q108429115",
    "15301": "Q108771846",
    "28197": "Q113627023",
    "29803": "Q108431349",
    "29752": "Q109614236",
    "28455": "Q108566766",
    "29171": "Q1329956",
    "29958": "Q2327283",
    "38948": "Q19275518",
    "29951": "Q1110928",
    "29177": "Q22320757",
    "12576": "Q705453",
    "29978": "Q19259073",
    "29977": "Q1339402",
    "29179": "Q881121",
    "13847": "Q814585",
    "12656": "Q1418221",
    "29982": "Q1558796",
    "12662": "Q24068718",
    "12663": "Q25089801",
    "12666": "Q16832835",
    "29188": "Q1229183",
    "29210": "Q436110",
    "29172": "Q990681",
    "29983": "Q2499121",
    "29190": "Q897345",
    "12623": "Q1721556",
    "12704": "Q108441185",
    "12705": "Q108441163",
    "12024": "Q15824544",
    "12711": "Q94963997",
    "12774": "Q110947678",
    "29191": "Q107640335",
    "12127": "Q1631062",
    "12148": "Q1559591",
    "12620": "Q1714318",
    "12621": "Q1583724",
    "12622": "Q1429221",
    "12710": "Q106605932",
    "12304": "Q1342586",
    "29300": "Q63349428",
    "13850": "Q28499802",
    "12787": "Q1739633",
    "11987": "Q19963961",
    "13135": "Q1821443",
    "30630": "Q1515851",
    "19391": "Q438118",
    "19871": "Q108566846",
    "30439": "Q95470222",
    "29454": "Q105755159",
    "17036": "Q111600518",
    "31127": "Q1259001",
    "27641": "Q104216876",
    "27649": "Q107377393",
    "27640": "Q109715802",
    "23433": "Q1714381",
    "30971": "Q799877",
    "23671": "Q799877",
    "23423": "Q108566830",
    "23426": "Q108566830",
    "23427": "Q108566830",
    "30955": "Q1262883",
    "23672": "Q799877",
    "23214": "Q28606918",
    "23443": "Q1714381",
    "23670": "Q1714381",
    "23887": "Q18287382",
    "29415": "Q96142416",
    "29414": "Q96143223",
    "30445": "Q25089266",
    "18006": "Q1686858",
    "29321": "Q317150",
    "29424": "Q732015",
    "29419": "Q96075516",
    "30516": "Q85515286",
    "14368": "Q16552799",
    "30281": "Q85685032",
    "16061": "Q56426045",
    "17799": "Q105674959",
    "16036": "Q1558062",
    "29375": "Q96050422",
    "15886": "Q85685032",
    "17859": "Q56426045",
    "14371": "Q105755871",
    "16041": "Q101001904",
    "29245": "Q1082972",
    "29232": "Q107100416",
    "16070": "Q114237850",
    "26902": "Q108566841",
    "29680": "Q2098738",
    "26901": "Q2098738",
    "29679": "Q19276057",
    "26889": "Q100447920",
    "26904": "Q1901084",
    "26898": "Q17592554",
    "29681": "Q17592554",
    "27298": "Q112044239",
    "27423": "Q113376067",
    "27439": "Q106594361",
    "29739": "Q14551353",
    "31106": "Q108566880",
    "29728": "Q14551330",
    "31119": "Q101513784",
    "31105": "Q1723929",
    "27420": "Q1723929",
    "30480": "Q66132745",
    "30443": "Q26836288",
    "16966": "Q26772401",
    "30442": "Q26772401",
    "16963": "Q105975737",
    "30138": "Q1425902",
    "30194": "Q1319890",
    "14431": "Q23893321",
    "14429": "Q10602002",
    "14053": "Q1425902",
    "19295": "Q100803977",
    "19300": "Q110400925",
    "45642": "Q111901527",
    "19143": "Q1741215",
    "19119": "Q879271",
    "19301": "Q2324644",
    "19516": "Q106605873",
    "18934": "Q106605873",
    "18936": "Q106605873",
    "18937": "Q106605873",
    "18699": "Q106605873",
    "18938": "Q106605873",
    "19530": "Q16240789",
    "29676": "Q2521891",
    "29537": "Q89565071",
    "19394": "Q379865",
    "31201": "Q1224792",
    "29205": "Q19285020",
    "30094": "Q913987",
    "13865": "Q71248365",
    "13746": "Q64347181",
    "13521": "Q1300206",
    "30212": "Q1573199",
    "12741": "Q460264",
    "13719": "Q19297115",
    "29313": "Q1598945",
    "13216": "Q104776433",
    "13215": "Q90887165",
    "30060": "Q104884105",
    "13238": "Q16318311",
    "13284": "Q104869958",
    "13285": "Q96472977",
    "13346": "Q28374409",
    "12182": "Q1626887",
    "12183": "Q1573125",
    "13537": "Q317892",
    "14314": "Q9187671",
    "31069": "Q39839480",
    "13163": "Q460264",
    "30039": "Q1229954",
    "14523": "Q1821415",
    "14764": "Q63380853",
    "31250": "Q11946338",
    "13145": "Q878166",
    "14874": "Q520613",
    "29310": "Q63436401",
    "19728": "Q112633503",
    "19887": "Q108566804",
    "19739": "Q1716716",
    "29572": "Q1377140",
    "30704": "Q108566854",
    "19729": "Q112633933",
    "16828": "Q104812793",
    "13301": "Q77401082",
    "15608": "Q107445411",
    "29439": "Q41680828",
    "16092": "Q108566869",
    "29805": "Q106634557",
    "29637": "Q1605511",
    "39182": "Q108566803",
    "20958": "Q874288",
    "30775": "Q658720",
    "20969": "Q30129726",
    "30881": "Q65637821",
    "21693": "Q658720",
    "29614": "Q668264",
    "24409": "Q66385182",
    "29215": "Q19279596",
    "13033": "Q84411414",
    "27125": "Q4016141",
    "31093": "Q18629535",
    "28594": "Q18629535",
    "29708": "Q1594955",
    "27411": "Q1361180",
    "27302": "Q1361180",
    "27410": "Q1361180",
    "27131": "Q18629535",
    "28593": "Q18629535",
    "44403": "Q110474042",
    "31092": "Q3646299",
    "31089": "Q1742778",
    "43428": "Q108566857",
    "29664": "Q105728762",
    "13167": "Q114042",
    "30461": "Q663740",
    "29351": "Q15126487",
    "24561": "Q1296746",
    "23262": "Q14906471",
    "29640": "Q65983194",
    "23253": "Q1316857",
    "23250": "Q43812915",
    "23264": "Q1716773",
    "29642": "Q1087331",
    "24546": "Q14912602",
    "23265": "Q2548180",
    "30996": "Q480740",
    "24573": "Q110206015",
    "24550": "Q2466085",
    "24663": "Q87994993",
    "23261": "Q100525373",
    "23260": "Q2466085",
    "31002": "Q1381959",
    "31075": "Q106605824",
    "26497": "Q85103561",
    "31070": "Q1877943",
    "27251": "Q76416817",
    "26025": "Q89194014",
    "28339": "Q114240745",
    "28340": "Q99175818",
    "28678": "Q91915892",
    "28371": "Q24248553",
    "29895": "Q91915341",
    "28679": "Q108250585",
    "28161": "Q111142048",
    "29598": "Q109877868",
    "29600": "Q83181694",
    "21424": "Q108566848",
    "21516": "Q28604520",
    "21521": "Q2465845",
    "23312": "Q2465845",
    "30802": "Q54339437",
    "28987": "Q28600335",
    "24406": "Q108566758",
    "29603": "Q66086082",
    "20945": "Q1613747",
    "29605": "Q105547318",
    "30806": "Q808346",
    "21803": "Q2465932",
    "21802": "Q28859949",
    "30866": "Q1640333",
    "30799": "Q655750",
    "21860": "Q71147090",
    "21864": "Q112826224",
    "29606": "Q875318",
    "21684": "Q28972172",
    "21880": "Q28972172",
    "21904": "Q109884378",
    "29897": "Q109911663",
    "21315": "Q108344656",
    "30871": "Q882742",
    "21102": "Q110551568",
    "21103": "Q64080330",
    "21233": "Q961913",
    "30944": "Q2466059",
    "22944": "Q2466059",
    "23307": "Q2466059",
    "21977": "Q28442539",
    "22329": "Q28442539",
    "23211": "Q28442539",
    "24448": "Q28442539",
    "22048": "Q18681278",
    "22055": "Q42231504",
    "22057": "Q54918912",
    "22054": "Q108750877",
    "39053": "Q21036574",
    "23198": "Q2466059",
    "22108": "Q29479402",
    "30845": "Q31838662",
    "30872": "Q2328173",
    "22107": "Q29479402",
    "29662": "Q3881293",
    "29661": "Q113882796",
    "25451": "Q108566820",
    "25444": "Q105529704",
    "23100": "Q95900488",
    "19701": "Q65884118",
    "31112": "Q11722101",
    "21405": "Q29573096",
    "30264": "Q2316651",
    "15289": "Q814528",
    "16448": "Q1454814",
    "16219": "Q204712",
    "16539": "Q64848309",
    "11753": "Q2233069",
    "30400": "Q1695139",
    "14907": "Q820243",
    "30385": "Q1457375",
    "16170": "Q2316651",
    "13965": "Q1721556",
    "30268": "Q1531643",
    "16240": "Q480733",
    "15251": "Q1687945",
    "17808": "Q1664659",
    "30813": "Q732023",
    "38918": "Q732023",
    "22556": "Q732023",
    "21244": "Q732023",
    "21274": "Q21037163",
    "30812": "Q360628",
    "38919": "Q732023",
    "38920": "Q2551782",
    "38921": "Q732023",
    "24245": "Q1954534",
    "22963": "Q25392126",
    "22914": "Q2250978",
    "30901": "Q96577708",
    "22327": "Q47535872",
    "29617": "Q15807180",
    "22316": "Q1595174",
    "19951": "Q1679407",
    "31154": "Q2167151",
    "29834": "Q1399761",
    "39001": "Q1399761",
    "39002": "Q1399761",
    "39003": "Q1399761",
    "26677": "Q2240259",
    "38984": "Q2240259",
    "29655": "Q862937",
    "29821": "Q681942",
    "28118": "Q18173158",
    "28119": "Q18173158",
    "28120": "Q18173158",
    "25182": "Q600946",
    "27755": "Q540460",
    "27091": "Q1802983",
    "13835": "Q2314891",
    "30409": "Q1321149",
    "30411": "Q811839",
    "29507": "Q1497510",
    "29508": "Q105682996",
    "18198": "Q1297111",
    "16688": "Q1540603",
    "17443": "Q108889061",
    "30475": "Q1615840",
    "18088": "Q97102019",
    "16701": "Q1895915",
    "29224": "Q295927",
    "14817": "Q26877589",
    "14820": "Q1310244",
    "13138": "Q1355744",
    "26124": "Q1382708",
    "39257": "Q2043377",
    "25963": "Q921940",
    "26561": "Q921940",
    "27151": "Q921940",
    "27167": "Q921940",
    "27166": "Q921940",
    "27158": "Q5905651",
    "22902": "Q1335750",
    "22904": "Q15810829",
    "19700": "Q1313918",
    "22397": "Q219109",
    "30902": "Q28859942",
    "24541": "Q15820609",
    "14804": "Q15820609",
    "29512": "Q831313",
    "30573": "Q2317633",
    "30506": "Q1087322",
    "19257": "Q1087322",
    "17666": "Q1087322",
    "18718": "Q1087322",
    "17664": "Q1087322",
    "19258": "Q1087322",
    "17665": "Q1087322",
    "30567": "Q275746",
    "18509": "Q275746",
    "30585": "Q1665442",
    "18906": "Q1665442",
    "18384": "Q47507433",
    "18381": "Q28089442",
    "29515": "Q2375432",
    "30556": "Q1304233",
    "26372": "Q1304233",
    "18396": "Q1304233",
    "18382": "Q1368264",
    "17662": "Q28859939",
    "18507": "Q275746",
    "17148": "Q2324376",
    "11752": "Q1648486",
    "17302": "Q1648486",
    "16418": "Q58070298",
    "20207": "Q1591980",
    "20659": "Q1591980",
    "24445": "Q1591980",
    "20489": "Q1237432",
    "20490": "Q1237432",
    "20491": "Q1237432",
    "20492": "Q1237432",
    "20493": "Q1237432",
    "20730": "Q2465965",
    "20501": "Q2465965",
    "23310": "Q2465965",
    "30750": "Q11722102",
    "20771": "Q11722102",
    "30741": "Q15110378",
    "20710": "Q15110378",
    "29585": "Q316207",
    "26119": "Q28124853",
    "24601": "Q1751987",
    "23832": "Q1751987",
    "24599": "Q1355745",
    "30204": "Q2321889",
    "14731": "Q2321889",
    "14316": "Q2321889",
    "29898": "Q1375148",
    "12439": "Q1206138",
    "12885": "Q19287874",
    "12470": "Q26219754",
    "11813": "Q439225",
    "12455": "Q27478711",
    "14151": "Q1353719",
    "29290": "Q1572904",
    "12486": "Q26260841",
    "29124": "Q23786517",
    "29125": "Q1586687",
    "29293": "Q535443",
    "12280": "Q1219",
    "11787": "Q27901868",
    "12474": "Q1737880",
    "29930": "Q35191095",
    "29920": "Q169542",
    "11852": "Q112571536",
    "11978": "Q3987",
    "11980": "Q1572997",
    "12258": "Q97988328",
    "12404": "Q564532",
    "12475": "Q65246760",
    "12407": "Q25089221",
    "12409": "Q25089216",
    "12410": "Q25089228",
    "12411": "Q23893802",
    "12414": "Q218602",
    "14216": "Q1087323",
    "14172": "Q1324214",
    "29219": "Q1997705",
    "30163": "Q1742809",
    "13798": "Q45245",
    "14131": "Q1549441",
    "13989": "Q19284721",
    "14192": "Q1783239",
    "29218": "Q17353668",
    "29332": "Q19964124",
    "14191": "Q2250980",
    "27873": "Q1584937",
    "31177": "Q18616186",
    "27877": "Q18616186",
    "27875": "Q1694353",
    "27533": "Q480738",
    "31176": "Q879808",
    "28539": "Q1715166",
    "27546": "Q636943",
    "29831": "Q1982364",
    "28538": "Q25036575",
    "27865": "Q1257678",
    "26945": "Q1716682",
    "30683": "Q27898016",
    "29247": "Q1601926",
    "20064": "Q1546956",
    "20066": "Q1546956",
    "20059": "Q1546956",
    "20078": "Q1546956",
    "20046": "Q1546956",
    "20051": "Q1546956",
    "16391": "Q1546956",
    "16392": "Q1546956",
    "16393": "Q1546956",
    "16394": "Q1546956",
    "16395": "Q1546956",
    "16396": "Q1546956",
    "16397": "Q1546956",
    "30664": "Q1418566",
    "20073": "Q1546956",
    "20070": "Q1546956",
    "20071": "Q1546956",
    "16400": "Q1546956",
    "20054": "Q1546956",
    "20053": "Q1546956",
    "16404": "Q1546956",
    "20052": "Q1546956",
    "20075": "Q1546956",
    "20081": "Q1546956",
    "20074": "Q1546956",
    "20082": "Q1546956",
    "20079": "Q1546956",
    "20060": "Q1546956",
    "20061": "Q1546956",
    "20062": "Q1546956",
    "16398": "Q1546956",
    "20042": "Q1546956",
    "20048": "Q1546956",
    "20049": "Q1546956",
    "20044": "Q1546956",
    "20045": "Q1546956",
    "29565": "Q1422053",
    "30680": "Q617499",
    "20063": "Q1546956",
    "20065": "Q1546956",
    "20057": "Q1546956",
    "20056": "Q1546956",
    "16399": "Q1546956",
    "20050": "Q1546956",
    "16401": "Q1546956",
    "16402": "Q1546956",
    "16403": "Q1546956",
    "20067": "Q1546956",
    "20068": "Q1546956",
    "20069": "Q1546956",
    "20076": "Q1546956",
    "20077": "Q1546956",
    "20047": "Q1546956",
    "20014": "Q27870977",
    "18777": "Q1742272",
    "30637": "Q18336186",
    "30636": "Q18336186",
    "31218": "Q882453",
    "28291": "Q315341",
    "26269": "Q38643723",
    "28277": "Q38643723",
    "30624": "Q1392886",
    "19273": "Q1392886",
    "30620": "Q19279491",
    "20361": "Q1392886",
    "14246": "Q1905680",
    "14249": "Q1905680",
    "14250": "Q14906925",
    "29774": "Q1805620",
    "1435": "Q2152282",
    "14827": "Q1408998",
    "14512": "Q1567914",
    "30467": "Q15120970",
    "15302": "Q15120970",
    "24681": "Q800877",
    "24696": "Q800877",
    "24338": "Q20618352",
    "27702": "Q16320906",
    "29885": "Q1481182",
    "31123": "Q2043567",
    "31121": "Q1719324",
    "27988": "Q1250742",
    "27578": "Q1250742",
    "27577": "Q1250742",
    "27576": "Q1250742",
    "27581": "Q1250742",
    "27580": "Q1250742",
    "27573": "Q1250742",
    "27574": "Q1250742",
    "27584": "Q2043567",
    "29944": "Q2651483",
    "14781": "Q437844",
    "11955": "Q540460",
    "12027": "Q15129057",
    "29194": "Q76164745",
    "29973": "Q330500",
    "14983": "Q2327283",
    "14984": "Q2327283",
    "12533": "Q27925553",
    "39109": "Q1158671",
    "14783": "Q1158671",
    "12568": "Q18710607",
    "12569": "Q1158671",
    "12023": "Q1158671",
    "12097": "Q494440",
    "12575": "Q19964045",
    "39100": "Q1573199",
    "14782": "Q1573199",
    "14785": "Q494440",
    "39108": "Q1691907",
    "14784": "Q1573199",
    "12703": "Q1575269",
    "29302": "Q665171",
    "12780": "Q27925553",
    "12839": "Q333435",
    "30013": "Q330500",
    "30014": "Q1714318",
    "12305": "Q1674707",
    "12505": "Q19279595",
    "29962": "Q437844",
    "29168": "Q2294396",
    "11948": "Q8158664",
    "29298": "Q12307568",
    "29299": "Q17765644",
    "13137": "Q1555405",
    "13837": "Q1332023",
    "12093": "Q674472",
    "12004": "Q15825480",
    "14752": "Q113642",
    "30008": "Q877252",
    "12114": "Q1746647",
    "13697": "Q321749",
    "12009": "Q15825480",
    "12628": "Q1325319",
    "30433": "Q98771749",
    "30429": "Q1232781",
    "17039": "Q19288788",
    "17530": "Q98771749",
    "17796": "Q1232781",
    "16932": "Q1232781",
    "29400": "Q1630947",
    "30431": "Q1989198",
    "16941": "Q1989198",
    "30428": "Q1620492",
    "16931": "Q1802974",
    "30432": "Q1803781",
    "16979": "Q1620492",
    "16517": "Q1803781",
    "17013": "Q6420149",
    "27655": "Q1259001",
    "30923": "Q19279769",
    "29622": "Q562211",
    "23314": "Q29048943",
    "30405": "Q106489986",
    "16893": "Q106485367",
    "16927": "Q106488984",
    "16889": "Q106704959",
    "17007": "Q106703375",
    "29486": "Q15133960",
    "17083": "Q1590249",
    "29421": "Q1087320",
    "30396": "Q1788345",
    "16363": "Q1788345",
    "30220": "Q16552799",
    "14367": "Q16552799",
    "14365": "Q16552799",
    "14366": "Q16552799",
    "30305": "Q15855624",
    "15469": "Q15855624",
    "16049": "Q1805513",
    "16062": "Q26156624",
    "15190": "Q26156624",
    "15192": "Q15855624",
    "29362": "Q15855624",
    "15280": "Q2646",
    "14363": "Q1504073",
    "15554": "Q1558062",
    "17885": "Q1558062",
    "17884": "Q1558062",
    "16364": "Q1788345",
    "14364": "Q1504073",
    "30348": "Q1595968",
    "15790": "Q1414278",
    "38996": "Q1241886",
    "31252": "Q16831191",
    "29024": "Q16831191",
    "29025": "Q16831191",
    "15274": "Q27478664",
    "15412": "Q126971",
    "30349": "Q19964075",
    "29730": "Q1899666",
    "27424": "Q21035551",
    "29795": "Q2142054",
    "17406": "Q1821457",
    "16981": "Q26772401",
    "16965": "Q1318152",
    "14425": "Q2551788",
    "14062": "Q31202344",
    "14051": "Q1004271",
    "14432": "Q1319890",
    "14828": "Q1319890",
    "14433": "Q1319890",
    "29326": "Q1362568",
    "29548": "Q26836620",
    "43360": "Q1219",
    "19135": "Q675774",
    "29246": "Q1407367",
    "19140": "Q18624152",
    "20115": "Q2711057",
    "18668": "Q1587872",
    "18667": "Q1587872",
    "18666": "Q1587872",
    "18665": "Q1001375",
    "29524": "Q110071974",
    "18672": "Q96238262",
    "18426": "Q1868756",
    "18162": "Q18629236",
    "18161": "Q18629237",
    "18709": "Q1728944",
    "18158": "Q1728944",
    "18167": "Q38967434",
    "19131": "Q1144577",
    "19126": "Q675774",
    "18951": "Q1653113",
    "18952": "Q1653113",
    "18953": "Q1653113",
    "18956": "Q1653113",
    "18957": "Q1653113",
    "18962": "Q1653113",
    "18958": "Q1653113",
    "18959": "Q1653113",
    "18949": "Q1653113",
    "18954": "Q1653113",
    "18966": "Q1653113",
    "18965": "Q1653113",
    "18964": "Q1653113",
    "18955": "Q1653113",
    "18950": "Q1653113",
    "18967": "Q1653113",
    "18961": "Q1653113",
    "18960": "Q1653113",
    "18968": "Q1653113",
    "18713": "Q634142",
    "19294": "Q2088197",
    "26866": "Q109083695",
    "19393": "Q1534377",
    "19399": "Q1534377",
    "28188": "Q1224792",
    "14114": "Q573491",
    "29204": "Q873918",
    "13363": "Q19284024",
    "13364": "Q19284024",
    "13365": "Q19284024",
    "13366": "Q19284024",
    "13367": "Q19284024",
    "29227": "Q15816032",
    "13653": "Q896052",
    "29209": "Q6456",
    "14108": "Q1868756",
    "13887": "Q450777",
    "29214": "Q23787750",
    "13734": "Q74589490",
    "29322": "Q1308438",
    "28130": "Q2431819",
    "12163": "Q437844",
    "29986": "Q460264",
    "29296": "Q27979158",
    "29987": "Q458970",
    "12742": "Q458970",
    "12743": "Q458970",
    "12744": "Q458970",
    "12745": "Q458970",
    "30108": "Q617048",
    "29989": "Q2235765",
    "12748": "Q2235765",
    "13718": "Q617048",
    "13720": "Q617048",
    "13188": "Q1573007",
    "13189": "Q2465884",
    "38927": "Q1598945",
    "13217": "Q2237848",
    "30057": "Q2237848",
    "13473": "Q2237848",
    "30058": "Q15137841",
    "12941": "Q15137841",
    "30059": "Q1467541",
    "12943": "Q1467541",
    "38926": "Q1598945",
    "29174": "Q2246310",
    "30069": "Q317892",
    "38949": "Q2237848",
    "13288": "Q2237848",
    "29356": "Q826376",
    "39104": "Q494440",
    "14838": "Q494440",
    "13287": "Q648375",
    "30074": "Q2237848",
    "43147": "Q17290357",
    "13328": "Q17290357",
    "12386": "Q1674737",
    "13538": "Q1177761",
    "13544": "Q2237848",
    "29317": "Q1567944",
    "28702": "Q61736039",
    "30031": "Q218715",
    "13157": "Q1412083",
    "13158": "Q1412083",
    "13156": "Q2535390",
    "30702": "Q502326",
    "19877": "Q502326",
    "19882": "Q502326",
    "19880": "Q502326",
    "19884": "Q502326",
    "19881": "Q502326",
    "29965": "Q142691",
    "12178": "Q142691",
    "29203": "Q1406993",
    "12043": "Q142691",
    "19118": "Q321523",
    "19194": "Q321523",
    "19117": "Q2231068",
    "24473": "Q18816353",
    "20568": "Q28549935",
    "20570": "Q29042915",
    "20582": "Q81542596",
    "44719": "Q11925994",
    "21879": "Q28972172",
    "21689": "Q19284723",
    "21694": "Q47531777",
    "22147": "Q658720",
    "22243": "Q30180861",
    "22256": "Q1865140",
    "22257": "Q19308838",
    "31090": "Q4016141",
    "27407": "Q4016141",
    "31101": "Q1361180",
    "27130": "Q3646299",
    "27408": "Q3646299",
    "18022": "Q663740",
    "11775": "Q663740",
    "31003": "Q1009270",
    "24549": "Q1067082",
    "24662": "Q2801591",
    "26852": "Q1877943",
    "31072": "Q881793",
    "31040": "Q2801514",
    "28420": "Q2801514",
    "26026": "Q2801514",
    "31228": "Q2551784",
    "28096": "Q28025256",
    "29894": "Q16218469",
    "28333": "Q1759209",
    "28341": "Q1573007",
    "29876": "Q2146149",
    "29667": "Q18008807",
    "30766": "Q884363",
    "21509": "Q884363",
    "21097": "Q1454081",
    "21810": "Q1640333",
    "24412": "Q1640333",
    "21907": "Q882742",
    "21941": "Q882742",
    "30809": "Q2472",
    "21780": "Q19288791",
    "22022": "Q29048962",
    "21454": "Q31838662",
    "29602": "Q51832005",
    "26214": "Q115860960"
}